{
    "name": "Theme",
    "alias": "theme",
    "description": "",
    "keywords": [],
    "order": 5,
    "providers": [
        "Modules\\Theme\\Providers\\ThemeServiceProvider"
    ],
    "aliases": {},
    "files": [],
    "requires": []
}
